Lab 0/simulation/qsim/Lab0.msim.vcd
$comment
	File created using the following command:
		vcd file Lab0.msim.vcd -direction
$end
$date
	Tue Jan 20 16:32:45 2026
$end
$version
	Questa Intel Starter FPGA Edition Version 2021.2
$end
$timescale
	1ps
$end

$scope module reg16_vhd_vec_tst $end
$var wire 1 ! Clock $end
$var wire 1 " ENABLE $end
$var wire 1 # Q [15] $end
$var wire 1 $ Q [14] $end
$var wire 1 % Q [13] $end
$var wire 1 & Q [12] $end
$var wire 1 ' Q [11] $end
$var wire 1 ( Q [10] $end
$var wire 1 ) Q [9] $end
$var wire 1 * Q [8] $end
$var wire 1 + Q [7] $end
$var wire 1 , Q [6] $end
$var wire 1 - Q [5] $end
$var wire 1 . Q [4] $end
$var wire 1 / Q [3] $end
$var wire 1 0 Q [2] $end
$var wire 1 1 Q [1] $end
$var wire 1 2 Q [0] $end
$var wire 1 3 R [15] $end
$var wire 1 4 R [14] $end
$var wire 1 5 R [13] $end
$var wire 1 6 R [12] $end
$var wire 1 7 R [11] $end
$var wire 1 8 R [10] $end
$var wire 1 9 R [9] $end
$var wire 1 : R [8] $end
$var wire 1 ; R [7] $end
$var wire 1 < R [6] $end
$var wire 1 = R [5] $end
$var wire 1 > R [4] $end
$var wire 1 ? R [3] $end
$var wire 1 @ R [2] $end
$var wire 1 A R [1] $end
$var wire 1 B R [0] $end

$scope module i1 $end
$var wire 1 C gnd $end
$var wire 1 D vcc $end
$var wire 1 E unknown $end
$var wire 1 F devoe $end
$var wire 1 G devclrn $end
$var wire 1 H devpor $end
$var wire 1 I ww_devoe $end
$var wire 1 J ww_devclrn $end
$var wire 1 K ww_devpor $end
$var wire 1 L ww_R [15] $end
$var wire 1 M ww_R [14] $end
$var wire 1 N ww_R [13] $end
$var wire 1 O ww_R [12] $end
$var wire 1 P ww_R [11] $end
$var wire 1 Q ww_R [10] $end
$var wire 1 R ww_R [9] $end
$var wire 1 S ww_R [8] $end
$var wire 1 T ww_R [7] $end
$var wire 1 U ww_R [6] $end
$var wire 1 V ww_R [5] $end
$var wire 1 W ww_R [4] $end
$var wire 1 X ww_R [3] $end
$var wire 1 Y ww_R [2] $end
$var wire 1 Z ww_R [1] $end
$var wire 1 [ ww_R [0] $end
$var wire 1 \ ww_ENABLE $end
$var wire 1 ] ww_Clock $end
$var wire 1 ^ ww_Q [15] $end
$var wire 1 _ ww_Q [14] $end
$var wire 1 ` ww_Q [13] $end
$var wire 1 a ww_Q [12] $end
$var wire 1 b ww_Q [11] $end
$var wire 1 c ww_Q [10] $end
$var wire 1 d ww_Q [9] $end
$var wire 1 e ww_Q [8] $end
$var wire 1 f ww_Q [7] $end
$var wire 1 g ww_Q [6] $end
$var wire 1 h ww_Q [5] $end
$var wire 1 i ww_Q [4] $end
$var wire 1 j ww_Q [3] $end
$var wire 1 k ww_Q [2] $end
$var wire 1 l ww_Q [1] $end
$var wire 1 m ww_Q [0] $end
$var wire 1 n \Clock~inputclkctrl_INCLK_bus\ [3] $end
$var wire 1 o \Clock~inputclkctrl_INCLK_bus\ [2] $end
$var wire 1 p \Clock~inputclkctrl_INCLK_bus\ [1] $end
$var wire 1 q \Clock~inputclkctrl_INCLK_bus\ [0] $end
$var wire 1 r \Q[0]~output_o\ $end
$var wire 1 s \Q[1]~output_o\ $end
$var wire 1 t \Q[2]~output_o\ $end
$var wire 1 u \Q[3]~output_o\ $end
$var wire 1 v \Q[4]~output_o\ $end
$var wire 1 w \Q[5]~output_o\ $end
$var wire 1 x \Q[6]~output_o\ $end
$var wire 1 y \Q[7]~output_o\ $end
$var wire 1 z \Q[8]~output_o\ $end
$var wire 1 { \Q[9]~output_o\ $end
$var wire 1 | \Q[10]~output_o\ $end
$var wire 1 } \Q[11]~output_o\ $end
$var wire 1 ~ \Q[12]~output_o\ $end
$var wire 1 !! \Q[13]~output_o\ $end
$var wire 1 "! \Q[14]~output_o\ $end
$var wire 1 #! \Q[15]~output_o\ $end
$var wire 1 $! \Clock~input_o\ $end
$var wire 1 %! \Clock~inputclkctrl_outclk\ $end
$var wire 1 &! \R[0]~input_o\ $end
$var wire 1 '! \reg_1|y[0]~feeder_combout\ $end
$var wire 1 (! \ENABLE~input_o\ $end
$var wire 1 )! \R[1]~input_o\ $end
$var wire 1 *! \R[2]~input_o\ $end
$var wire 1 +! \reg_1|y[2]~feeder_combout\ $end
$var wire 1 ,! \R[3]~input_o\ $end
$var wire 1 -! \reg_1|y[3]~feeder_combout\ $end
$var wire 1 .! \R[4]~input_o\ $end
$var wire 1 /! \reg_1|y[4]~feeder_combout\ $end
$var wire 1 0! \R[5]~input_o\ $end
$var wire 1 1! \R[6]~input_o\ $end
$var wire 1 2! \R[7]~input_o\ $end
$var wire 1 3! \reg_1|y[7]~feeder_combout\ $end
$var wire 1 4! \R[8]~input_o\ $end
$var wire 1 5! \reg_2|y[0]~feeder_combout\ $end
$var wire 1 6! \R[9]~input_o\ $end
$var wire 1 7! \reg_2|y[1]~feeder_combout\ $end
$var wire 1 8! \R[10]~input_o\ $end
$var wire 1 9! \R[11]~input_o\ $end
$var wire 1 :! \reg_2|y[3]~feeder_combout\ $end
$var wire 1 ;! \R[12]~input_o\ $end
$var wire 1 <! \reg_2|y[4]~feeder_combout\ $end
$var wire 1 =! \R[13]~input_o\ $end
$var wire 1 >! \reg_2|y[5]~feeder_combout\ $end
$var wire 1 ?! \R[14]~input_o\ $end
$var wire 1 @! \reg_2|y[6]~feeder_combout\ $end
$var wire 1 A! \R[15]~input_o\ $end
$var wire 1 B! \reg_2|y[7]~feeder_combout\ $end
$var wire 1 C! \reg_1|y\ [7] $end
$var wire 1 D! \reg_1|y\ [6] $end
$var wire 1 E! \reg_1|y\ [5] $end
$var wire 1 F! \reg_1|y\ [4] $end
$var wire 1 G! \reg_1|y\ [3] $end
$var wire 1 H! \reg_1|y\ [2] $end
$var wire 1 I! \reg_1|y\ [1] $end
$var wire 1 J! \reg_1|y\ [0] $end
$var wire 1 K! \reg_2|y\ [7] $end
$var wire 1 L! \reg_2|y\ [6] $end
$var wire 1 M! \reg_2|y\ [5] $end
$var wire 1 N! \reg_2|y\ [4] $end
$var wire 1 O! \reg_2|y\ [3] $end
$var wire 1 P! \reg_2|y\ [2] $end
$var wire 1 Q! \reg_2|y\ [1] $end
$var wire 1 R! \reg_2|y\ [0] $end
$upscope $end
$upscope $end
$enddefinitions $end
#0
$dumpvars
0!
0"
0C
1D
xE
1F
1G
1H
1I
1J
1K
0\
0]
0r
0s
0t
0u
0v
0w
0x
0y
0z
0{
0|
0}
0~
0!!
0"!
0#!
0$!
0%!
1&!
1'!
0(!
1)!
0*!
0+!
0,!
0-!
1.!
1/!
10!
11!
12!
13!
14!
15!
16!
17!
18!
09!
0:!
0;!
0<!
1=!
1>!
1?!
1@!
0A!
0B!
03
14
15
06
07
18
19
1:
1;
1<
1=
1>
0?
0@
1A
1B
0L
1M
1N
0O
0P
1Q
1R
1S
1T
1U
1V
1W
0X
0Y
1Z
1[
0C!
0D!
0E!
0F!
0G!
0H!
0I!
0J!
0K!
0L!
0M!
0N!
0O!
0P!
0Q!
0R!
1n
1o
1p
0q
0#
0$
0%
0&
0'
0(
0)
0*
0+
0,
0-
0.
0/
00
01
02
0^
0_
0`
0a
0b
0c
0d
0e
0f
0g
0h
0i
0j
0k
0l
0m
$end
#10000
1!
1]
1$!
1q
1%!
#20000
0!
0]
0$!
0q
0%!
#25000
1"
1\
1(!
#30000
1!
1]
1$!
1q
1%!
1J!
1I!
1F!
1E!
1D!
1C!
1R!
1Q!
1P!
1M!
1L!
1"!
1!!
1|
1{
1z
1y
1x
1w
1v
1s
1r
1_
1`
1c
1d
1e
1f
1g
1h
1i
1l
1m
12
11
1.
1-
1,
1+
1*
1)
1(
1%
1$
#40000
0!
0]
0$!
0q
0%!
#50000
1!
0"
1]
0\
0(!
1$!
1q
1%!
#60000
0!
0]
0$!
0q
0%!
#70000
1!
1]
1$!
1q
1%!
#75000
1"
1\
1(!
#80000
0!
0]
0$!
0q
0%!
#90000
1!
13
04
05
17
08
0:
1@
0A
0B
1]
0[
0Z
1Y
0S
0Q
1P
0N
0M
1L
1A!
0?!
0=!
19!
08!
04!
1*!
0)!
0&!
1$!
1q
0'!
1+!
05!
1:!
0>!
0@!
1B!
1%!
0J!
0I!
1H!
0R!
0P!
1O!
0M!
0L!
1K!
1#!
0"!
0!!
1}
0|
0z
1t
0s
0r
1^
0_
0`
1b
0c
0e
1k
0l
0m
02
01
10
0*
0(
1'
0%
0$
1#
#100000
0!
0"
0]
0\
0(!
0$!
0q
0%!
#110000
1!
1]
1$!
1q
1%!
#120000
0!
0]
0$!
0q
0%!
#125000
1"
1\
1(!
#130000
1!
1]
1$!
1q
1%!
#140000
0!
0]
0$!
0q
0%!
#150000
1!
0"
1]
0\
0(!
1$!
1q
1%!
#160000
0!
0]
0$!
0q
0%!
#170000
1!
1]
1$!
1q
1%!
#175000
1"
1\
1(!
#180000
0!
03
18
09
0=
0>
1?
0]
1X
0W
0V
0R
1Q
0L
0A!
18!
06!
00!
0.!
1,!
0$!
0q
1-!
0/!
07!
0B!
0%!
#190000
1!
1]
1$!
1q
1%!
1G!
0F!
0E!
0Q!
1P!
0K!
0#!
1|
0{
0w
0v
1u
0^
1c
0d
0h
0i
1j
1/
0.
0-
0)
1(
0#
#200000
0!
0"
0]
0\
0(!
0$!
0q
0%!
#210000
1!
1]
1$!
1q
1%!
#220000
0!
0]
0$!
0q
0%!
#225000
1"
1\
1(!
#230000
1!
1]
1$!
1q
1%!
#240000
0!
0]
0$!
0q
0%!
#250000
1!
0"
1]
0\
0(!
1$!
1q
1%!
#260000
0!
0]
0$!
0q
0%!
#270000
1!
13
08
1>
0?
14
15
0@
1B
16
0;
1]
1[
0Y
0X
1W
0T
0Q
1O
1N
1M
1L
1A!
1?!
1=!
1;!
08!
02!
1.!
0,!
0*!
1&!
1$!
1q
1'!
0+!
0-!
1/!
03!
1<!
1>!
1@!
1B!
1%!
#275000
1"
1\
1(!
#280000
0!
0]
0$!
0q
0%!
#290000
1!
1]
1$!
1q
1%!
1J!
0H!
0G!
1F!
0C!
0P!
1N!
1M!
1L!
1K!
1#!
1"!
1!!
1~
0|
0y
1v
0u
0t
1r
1^
1_
1`
1a
0c
0f
1i
0j
0k
1m
12
00
0/
1.
0+
0(
1&
1%
1$
1#
#300000
0!
0"
0]
0\
0(!
0$!
0q
0%!
#310000
1!
1]
1$!
1q
1%!
#320000
0!
0]
0$!
0q
0%!
#325000
1"
1\
1(!
#330000
1!
1]
1$!
1q
1%!
#340000
0!
0]
0$!
0q
0%!
#350000
1!
0"
1]
0\
0(!
1$!
1q
1%!
#360000
0!
03
18
04
1@
06
1;
1=
07
1A
0]
1Z
1Y
1V
1T
1Q
0P
0O
0M
0L
0A!
0?!
0;!
09!
18!
12!
10!
1*!
1)!
0$!
0q
1+!
13!
0:!
0<!
0@!
0B!
0%!
#370000
1!
1]
1$!
1q
1%!
#375000
1"
1\
1(!
#380000
0!
0]
0$!
0q
0%!
#390000
1!
1]
1$!
1q
1%!
1I!
1H!
1E!
1C!
1P!
0O!
0N!
0L!
0K!
0#!
0"!
0~
0}
1|
1y
1w
1t
1s
0^
0_
0a
0b
1c
1f
1h
1k
1l
11
10
1-
1+
1(
0'
0&
0$
0#
#400000
0!
0"
0]
0\
0(!
0$!
0q
0%!
#410000
1!
1]
1$!
1q
1%!
#420000
0!
0]
0$!
0q
0%!
#425000
1"
1\
1(!
#430000
1!
1]
1$!
1q
1%!
#440000
0!
0]
0$!
0q
0%!
#450000
1!
0"
13
08
14
0;
17
0A
0>
1?
05
0B
19
1:
0<
1]
0\
0[
0Z
1X
0W
0U
0T
1S
1R
0Q
1P
0N
1M
1L
1A!
1?!
0=!
19!
08!
16!
14!
02!
01!
0.!
1,!
0)!
0&!
0(!
1$!
1q
0'!
1-!
0/!
03!
15!
17!
1:!
0>!
1@!
1B!
1%!
#460000
0!
0]
0$!
0q
0%!
#470000
1!
1]
1$!
1q
1%!
#475000
1"
1\
1(!
#480000
0!
0]
0$!
0q
0%!
#490000
1!
1]
1$!
1q
1%!
0J!
0I!
1G!
0F!
0D!
0C!
1R!
1Q!
0P!
1O!
0M!
1L!
1K!
1#!
1"!
0!!
1}
0|
1{
1z
0y
0x
0v
1u
0s
0r
1^
1_
0`
1b
0c
1d
1e
0f
0g
0i
1j
0l
0m
02
01
1/
0.
0,
0+
1*
1)
0(
1'
0%
1$
1#
#500000
0!
0"
0]
0\
0(!
0$!
0q
0%!
#510000
1!
1]
1$!
1q
1%!
#520000
0!
0]
0$!
0q
0%!
#525000
1"
1\
1(!
#530000
1!
1]
1$!
1q
1%!
#540000
0!
18
1A
1>
1B
0:
0@
16
0]
1[
1Z
0Y
1W
0S
1Q
1O
1;!
18!
04!
1.!
0*!
1)!
1&!
0$!
0q
1'!
0+!
1/!
05!
1<!
0%!
#550000
1!
0"
1]
0\
0(!
1$!
1q
1%!
#560000
0!
0]
0$!
0q
0%!
#570000
1!
1]
1$!
1q
1%!
#575000
1"
1\
1(!
#580000
0!
0]
0$!
0q
0%!
#590000
1!
1]
1$!
1q
1%!
1J!
1I!
0H!
1F!
0R!
1P!
1N!
1~
1|
0z
1v
0t
1s
1r
1a
1c
0e
1i
0k
1l
1m
12
11
00
1.
0*
1(
1&
#600000
0!
0"
0]
0\
0(!
0$!
0q
0%!
#610000
1!
1]
1$!
1q
1%!
#620000
0!
0]
0$!
0q
0%!
#625000
1"
1\
1(!
#630000
1!
0>
04
07
0?
09
1<
0=
1]
0X
0W
0V
1U
0R
0P
0M
0?!
09!
06!
11!
00!
0.!
0,!
1$!
1q
0-!
0/!
07!
0:!
0@!
1%!
0G!
0F!
0E!
1D!
0Q!
0O!
0L!
0"!
0}
0{
1x
0w
0v
0u
0_
0b
0d
1g
0h
0i
0j
0/
0.
0-
1,
0)
0'
0$
#640000
0!
0]
0$!
0q
0%!
#650000
1!
0"
1]
0\
0(!
1$!
1q
1%!
#660000
0!
0]
0$!
0q
0%!
#670000
1!
1]
1$!
1q
1%!
#675000
1"
1\
1(!
#680000
0!
0]
0$!
0q
0%!
#690000
1!
1]
1$!
1q
1%!
#700000
0!
0"
0]
0\
0(!
0$!
0q
0%!
#710000
1!
1]
1$!
1q
1%!
#720000
0!
1>
1?
08
06
0]
1X
1W
0Q
0O
0;!
08!
1.!
1,!
0$!
0q
1-!
1/!
0<!
0%!
#725000
1"
1\
1(!
#730000
1!
1]
1$!
1q
1%!
1G!
1F!
0P!
0N!
0~
0|
1v
1u
0a
0c
1i
1j
1/
1.
0(
0&
#740000
0!
0]
0$!
0q
0%!
#750000
1!
0"
1]
0\
0(!
1$!
1q
1%!
#760000
0!
0]
0$!
0q
0%!
#770000
1!
1]
1$!
1q
1%!
#775000
1"
1\
1(!
#780000
0!
0]
0$!
0q
0%!
#790000
1!
1]
1$!
1q
1%!
#800000
0!
0"
0]
0\
0(!
0$!
0q
0%!
#810000
1!
18
17
0<
1=
0A
1@
1;
15
1]
0Z
1Y
1V
0U
1T
1Q
1P
1N
1=!
19!
18!
12!
01!
10!
1*!
0)!
1$!
1q
1+!
13!
1:!
1>!
1%!
#820000
0!
0]
0$!
0q
0%!
#825000
1"
1\
1(!
#830000
1!
1]
1$!
1q
1%!
0I!
1H!
1E!
0D!
1C!
1P!
1O!
1M!
1!!
1}
1|
1y
0x
1w
1t
0s
1`
1b
1c
1f
0g
1h
1k
0l
01
10
1-
0,
1+
1(
1'
1%
#840000
0!
0]
0$!
0q
0%!
#850000
1!
0"
1]
0\
0(!
1$!
1q
1%!
#860000
0!
0]
0$!
0q
0%!
#870000
1!
1]
1$!
1q
1%!
#875000
1"
1\
1(!
#880000
0!
0]
0$!
0q
0%!
#890000
1!
1]
1$!
1q
1%!
#900000
0!
0"
1A
0@
05
0?
16
14
19
1:
0]
0\
1Z
0Y
0X
1S
1R
1O
0N
1M
1?!
0=!
1;!
16!
14!
0,!
0*!
1)!
0(!
0$!
0q
0+!
0-!
15!
17!
1<!
0>!
1@!
0%!
#910000
1!
1]
1$!
1q
1%!
#920000
0!
0]
0$!
0q
0%!
#925000
1"
1\
1(!
#930000
1!
1]
1$!
1q
1%!
1I!
0H!
0G!
1R!
1Q!
1N!
0M!
1L!
1"!
0!!
1~
1{
1z
0u
0t
1s
1_
0`
1a
1d
1e
0j
0k
1l
11
00
0/
1*
1)
1&
0%
1$
#940000
0!
0]
0$!
0q
0%!
#950000
1!
0"
1]
0\
0(!
1$!
1q
1%!
#960000
0!
0]
0$!
0q
0%!
#970000
1!
1]
1$!
1q
1%!
#975000
1"
1\
1(!
#980000
0!
0]
0$!
0q
0%!
#990000
1!
1@
1?
06
04
09
0:
08
07
0>
1]
1Y
1X
0W
0S
0R
0Q
0P
0O
0M
0?!
0;!
09!
08!
06!
04!
0.!
1,!
1*!
1$!
1q
1+!
1-!
0/!
05!
07!
0:!
0<!
0@!
1%!
1H!
1G!
0F!
0R!
0Q!
0P!
0O!
0N!
0L!
0"!
0~
0}
0|
0{
0z
0v
1u
1t
0_
0a
0b
0c
0d
0e
0i
1j
1k
10
1/
0.
0*
0)
0(
0'
0&
0$
